STORY;0;Initial items
ITEM;0;1;Sword;Basic sword;WEAPON;NONE
ITEM;0;2;Armor;Sturdy leather armor;ARMOR;NONE
ITEM;0;3;Shield;Simple shield;SHIELD;NONE
ITEM;0;10;Food;Simple rations;PROVISION;RESTORE;STAMINA;4
STORY;1;You're at the entrance. Inside there are two hallways.
ACTION;1;Choose the northern hallway.;MOVE;2
ACTION;1;Choose the southern hallway.;MOVE;3
STORY;2;There's a small table with a key on it.
ITEM;2;4;Key;A small brass key;KEY;NONE
ACTION;2;Go back to the southern hallway.;MOVE;3
STORY;3;The halway ends in a large wooden door.
ACTION;3;Open the door;MOVE;4;HAS;4
ACTION;3;Go back to the entrance.;MOVE;1
STORY;4;You entered the kitchen area.
ITEM;4;5;Cake;A delicious cake;PROVISION;RESTORE;STAMINA;4
ITEM;4;6;Skillful sword;Magic sword that improves skill;WEAPON;MAGIC;SKILL;2
ACTION;4;Go back to the entrance.;MOVE;1